AES Encryption/work/tb_aes_enc.vcd
$date
  Tue Jul 22 22:27:07 2025
$end
$version
  GHDL v0
$end
$timescale
  1 fs
$end
$scope module standard $end
$upscope $end
$scope module textio $end
$upscope $end
$scope module std_logic_1164 $end
$upscope $end
$scope module numeric_std $end
$upscope $end
$scope module defs_pkg $end
$upscope $end
$scope module tb_aes_enc $end
$var reg 1 ! clk $end
$var reg 1 " reset $end
$var reg 1 # enable $end
$var reg 128 $ data_in[127:0] $end
$var reg 128 % data_out[127:0] $end
$comment keys is not handled $end
$var reg 1 & keys_done $end
$var reg 1 ' keys_en $end
$var reg 128 ( key[127:0] $end
$var reg 1 ) done $end
$comment dbg_add_out is not handled $end
$comment dbg_sub_out is not handled $end
$comment dbg_shift_out is not handled $end
$comment dbg_mix_out is not handled $end
$comment dbg_add_in is not handled $end
$var reg 128 * round_key_0[127:0] $end
$var reg 128 + round_key_1[127:0] $end
$var reg 128 , round_key_2[127:0] $end
$var reg 128 - round_key_3[127:0] $end
$var reg 128 . round_key_4[127:0] $end
$var reg 128 / round_key_5[127:0] $end
$var reg 128 0 round_key_6[127:0] $end
$var reg 128 1 round_key_7[127:0] $end
$var reg 128 2 round_key_8[127:0] $end
$var reg 128 3 round_key_9[127:0] $end
$var reg 128 4 round_key_10[127:0] $end
$var reg 8 5 add_byte_00[7:0] $end
$var reg 8 6 add_byte_01[7:0] $end
$var reg 8 7 add_byte_02[7:0] $end
$var reg 8 8 add_byte_03[7:0] $end
$var reg 8 9 add_byte_10[7:0] $end
$var reg 8 : add_byte_11[7:0] $end
$var reg 8 ; add_byte_12[7:0] $end
$var reg 8 < add_byte_13[7:0] $end
$var reg 8 = add_byte_20[7:0] $end
$var reg 8 > add_byte_21[7:0] $end
$var reg 8 ? add_byte_22[7:0] $end
$var reg 8 @ add_byte_23[7:0] $end
$var reg 8 A add_byte_30[7:0] $end
$var reg 8 B add_byte_31[7:0] $end
$var reg 8 C add_byte_32[7:0] $end
$var reg 8 D add_byte_33[7:0] $end
$var reg 8 E sub_byte_00[7:0] $end
$var reg 8 F sub_byte_01[7:0] $end
$var reg 8 G sub_byte_02[7:0] $end
$var reg 8 H sub_byte_03[7:0] $end
$var reg 8 I sub_byte_10[7:0] $end
$var reg 8 J sub_byte_11[7:0] $end
$var reg 8 K sub_byte_12[7:0] $end
$var reg 8 L sub_byte_13[7:0] $end
$var reg 8 M sub_byte_20[7:0] $end
$var reg 8 N sub_byte_21[7:0] $end
$var reg 8 O sub_byte_22[7:0] $end
$var reg 8 P sub_byte_23[7:0] $end
$var reg 8 Q sub_byte_30[7:0] $end
$var reg 8 R sub_byte_31[7:0] $end
$var reg 8 S sub_byte_32[7:0] $end
$var reg 8 T sub_byte_33[7:0] $end
$var reg 8 U shift_byte_00[7:0] $end
$var reg 8 V shift_byte_01[7:0] $end
$var reg 8 W shift_byte_02[7:0] $end
$var reg 8 X shift_byte_03[7:0] $end
$var reg 8 Y shift_byte_10[7:0] $end
$var reg 8 Z shift_byte_11[7:0] $end
$var reg 8 [ shift_byte_12[7:0] $end
$var reg 8 \ shift_byte_13[7:0] $end
$var reg 8 ] shift_byte_20[7:0] $end
$var reg 8 ^ shift_byte_21[7:0] $end
$var reg 8 _ shift_byte_22[7:0] $end
$var reg 8 ` shift_byte_23[7:0] $end
$var reg 8 a shift_byte_30[7:0] $end
$var reg 8 b shift_byte_31[7:0] $end
$var reg 8 c shift_byte_32[7:0] $end
$var reg 8 d shift_byte_33[7:0] $end
$var reg 8 e mix_byte_00[7:0] $end
$var reg 8 f mix_byte_01[7:0] $end
$var reg 8 g mix_byte_02[7:0] $end
$var reg 8 h mix_byte_03[7:0] $end
$var reg 8 i mix_byte_10[7:0] $end
$var reg 8 j mix_byte_11[7:0] $end
$var reg 8 k mix_byte_12[7:0] $end
$var reg 8 l mix_byte_13[7:0] $end
$var reg 8 m mix_byte_20[7:0] $end
$var reg 8 n mix_byte_21[7:0] $end
$var reg 8 o mix_byte_22[7:0] $end
$var reg 8 p mix_byte_23[7:0] $end
$var reg 8 q mix_byte_30[7:0] $end
$var reg 8 r mix_byte_31[7:0] $end
$var reg 8 s mix_byte_32[7:0] $end
$var reg 8 t mix_byte_33[7:0] $end
$var reg 8 u add_in_byte_00[7:0] $end
$var reg 8 v add_in_byte_01[7:0] $end
$var reg 8 w add_in_byte_02[7:0] $end
$var reg 8 x add_in_byte_03[7:0] $end
$var reg 8 y add_in_byte_10[7:0] $end
$var reg 8 z add_in_byte_11[7:0] $end
$var reg 8 { add_in_byte_12[7:0] $end
$var reg 8 | add_in_byte_13[7:0] $end
$var reg 8 } add_in_byte_20[7:0] $end
$var reg 8 !" add_in_byte_21[7:0] $end
$var reg 8 "" add_in_byte_22[7:0] $end
$var reg 8 #" add_in_byte_23[7:0] $end
$var reg 8 $" add_in_byte_30[7:0] $end
$var reg 8 %" add_in_byte_31[7:0] $end
$var reg 8 &" add_in_byte_32[7:0] $end
$var reg 8 '" add_in_byte_33[7:0] $end
$scope module uut $end
$var reg 1 (" clk $end
$var reg 1 )" reset $end
$var reg 1 *" enable $end
$var reg 128 +" data_in[127:0] $end
$comment round_keys is not handled $end
$var reg 128 ," data_out[127:0] $end
$var reg 1 -" done $end
$comment debug_add_round_key_out is not handled $end
$comment debug_sub_bytes_out is not handled $end
$comment debug_shift_rows_out is not handled $end
$comment debug_mix_column_out is not handled $end
$comment debug_add_round_key_in is not handled $end
$comment current_state is not handled $end
$comment next_state is not handled $end
$comment input_reg is not handled $end
$comment add_round_key_in is not handled $end
$var integer 32 ." cur_round_internal $end
$var reg 1 /" add_round_key_enable $end
$var reg 1 0" add_round_key_done $end
$comment add_round_key_state_out is not handled $end
$var reg 1 1" sub_bytes_enable $end
$var reg 1 2" sub_bytes_done $end
$comment sub_bytes_state_out is not handled $end
$var reg 1 3" shift_rows_enable $end
$var reg 1 4" shift_rows_done $end
$comment shift_rows_state_out is not handled $end
$var reg 1 5" mix_column_enable $end
$var reg 1 6" mix_column_done $end
$comment mix_column_state_out is not handled $end
$scope module add_round_key_inst $end
$var reg 1 7" clk $end
$var reg 1 8" reset $end
$var reg 1 9" enable $end
$comment state_in is not handled $end
$comment round_keys is not handled $end
$var integer 32 :" cur_round $end
$var reg 1 ;" done $end
$comment state_out is not handled $end
$upscope $end
$scope module sub_bytes_inst $end
$var reg 1 <" clk $end
$var reg 1 =" reset $end
$var reg 1 >" enable $end
$comment state_in is not handled $end
$var reg 1 ?" done $end
$comment state_out is not handled $end
$upscope $end
$scope module shift_rows_inst $end
$var reg 1 @" clk $end
$var reg 1 A" reset $end
$var reg 1 B" enable $end
$comment state_in is not handled $end
$var reg 1 C" done $end
$comment state_out is not handled $end
$upscope $end
$scope module mix_column_inst $end
$var reg 1 D" clk $end
$var reg 1 E" reset $end
$var reg 1 F" enable $end
$comment state_in is not handled $end
$var reg 1 G" done $end
$comment state_out is not handled $end
$upscope $end
$upscope $end
$scope module keys_inst $end
$var reg 1 H" clk $end
$var reg 1 I" reset $end
$var reg 1 J" enable $end
$var reg 128 K" key_in[127:0] $end
$var reg 1 L" done $end
$comment keys_out is not handled $end
$comment state is not handled $end
$var integer 32 M" cur_round $end
$comment temp_reg is not handled $end
$var reg 1 N" done_internal $end
$var reg 32 O" g_result[31:0] $end
$upscope $end
$upscope $end
$enddefinitions $end
#0
0!
1"
0#
b00000000000000000000000000000000000000000000000000000000000000000000000000000000000000000000000000000000000000000000000000000000 $
b00000000000000000000000000000000000000000000000000000000000000000000000000000000000000000000000000000000000000000000000000000000 %
0&
0'
b00000000000000000000000000000000000000000000000000000000000000000000000000000000000000000000000000000000000000000000000000000000 (
0)
b00000000000000000000000000000000000000000000000000000000000000000000000000000000000000000000000000000000000000000000000000000000 *
b00000000000000000000000000000000000000000000000000000000000000000000000000000000000000000000000000000000000000000000000000000000 +
b00000000000000000000000000000000000000000000000000000000000000000000000000000000000000000000000000000000000000000000000000000000 ,
b00000000000000000000000000000000000000000000000000000000000000000000000000000000000000000000000000000000000000000000000000000000 -
b00000000000000000000000000000000000000000000000000000000000000000000000000000000000000000000000000000000000000000000000000000000 .
b00000000000000000000000000000000000000000000000000000000000000000000000000000000000000000000000000000000000000000000000000000000 /
b00000000000000000000000000000000000000000000000000000000000000000000000000000000000000000000000000000000000000000000000000000000 0
b00000000000000000000000000000000000000000000000000000000000000000000000000000000000000000000000000000000000000000000000000000000 1
b00000000000000000000000000000000000000000000000000000000000000000000000000000000000000000000000000000000000000000000000000000000 2
b00000000000000000000000000000000000000000000000000000000000000000000000000000000000000000000000000000000000000000000000000000000 3
b00000000000000000000000000000000000000000000000000000000000000000000000000000000000000000000000000000000000000000000000000000000 4
bUUUUUUUU 5
bUUUUUUUU 6
bUUUUUUUU 7
bUUUUUUUU 8
bUUUUUUUU 9
bUUUUUUUU :
bUUUUUUUU ;
bUUUUUUUU <
bUUUUUUUU =
bUUUUUUUU >
bUUUUUUUU ?
bUUUUUUUU @
bUUUUUUUU A
bUUUUUUUU B
bUUUUUUUU C
bUUUUUUUU D
bUUUUUUUU E
bUUUUUUUU F
bUUUUUUUU G
bUUUUUUUU H
bUUUUUUUU I
bUUUUUUUU J
bUUUUUUUU K
bUUUUUUUU L
bUUUUUUUU M
bUUUUUUUU N
bUUUUUUUU O
bUUUUUUUU P
bUUUUUUUU Q
bUUUUUUUU R
bUUUUUUUU S
bUUUUUUUU T
bUUUUUUUU U
bUUUUUUUU V
bUUUUUUUU W
bUUUUUUUU X
bUUUUUUUU Y
bUUUUUUUU Z
bUUUUUUUU [
bUUUUUUUU \
bUUUUUUUU ]
bUUUUUUUU ^
bUUUUUUUU _
bUUUUUUUU `
bUUUUUUUU a
bUUUUUUUU b
bUUUUUUUU c
bUUUUUUUU d
bUUUUUUUU e
bUUUUUUUU f
bUUUUUUUU g
bUUUUUUUU h
bUUUUUUUU i
bUUUUUUUU j
bUUUUUUUU k
bUUUUUUUU l
bUUUUUUUU m
bUUUUUUUU n
bUUUUUUUU o
bUUUUUUUU p
bUUUUUUUU q
bUUUUUUUU r
bUUUUUUUU s
bUUUUUUUU t
b00000000 u
b00000000 v
b00000000 w
b00000000 x
b00000000 y
b00000000 z
b00000000 {
b00000000 |
b00000000 }
b00000000 !"
b00000000 ""
b00000000 #"
b00000000 $"
b00000000 %"
b00000000 &"
b00000000 '"
0("
1)"
0*"
b00000000000000000000000000000000000000000000000000000000000000000000000000000000000000000000000000000000000000000000000000000000 +"
b00000000000000000000000000000000000000000000000000000000000000000000000000000000000000000000000000000000000000000000000000000000 ,"
0-"
b0 ."
0/"
U0"
01"
U2"
03"
U4"
05"
U6"
07"
18"
09"
b0 :"
U;"
0<"
1="
0>"
U?"
0@"
1A"
0B"
UC"
0D"
1E"
0F"
UG"
0H"
1I"
0J"
b00000000000000000000000000000000000000000000000000000000000000000000000000000000000000000000000000000000000000000000000000000000 K"
0L"
b0 M"
0N"
b00000000000000000000000000000000 O"
#5000000
1!
1("
00"
02"
04"
06"
17"
0;"
1<"
0?"
1@"
0C"
1D"
0G"
1H"
#10000000
0!
0("
07"
0<"
0@"
0D"
0H"
#15000000
1!
1("
17"
1<"
1@"
1D"
1H"
#20000000
0!
0("
07"
0<"
0@"
0D"
0H"
#25000000
1!
1("
17"
1<"
1@"
1D"
1H"
#30000000
0!
0("
07"
0<"
0@"
0D"
0H"
#35000000
1!
1("
17"
1<"
1@"
1D"
1H"
#40000000
0!
0("
07"
0<"
0@"
0D"
0H"
#45000000
1!
1("
17"
1<"
1@"
1D"
1H"
#50000000
0!
0("
07"
0<"
0@"
0D"
0H"
#55000000
1!
1("
17"
1<"
1@"
1D"
1H"
#60000000
0!
0("
07"
0<"
0@"
0D"
0H"
#65000000
1!
1("
17"
1<"
1@"
1D"
1H"
#70000000
0!
0("
07"
0<"
0@"
0D"
0H"
#75000000
1!
1("
17"
1<"
1@"
1D"
1H"
#80000000
0!
0("
07"
0<"
0@"
0D"
0H"
#85000000
1!
1("
17"
1<"
1@"
1D"
1H"
#90000000
0!
0("
07"
0<"
0@"
0D"
0H"
#95000000
1!
1("
17"
1<"
1@"
1D"
1H"
#100000000
0!
0"
1'
b00101011011111100001010100010110001010001010111011010010101001101010101111110111000101011000100000001001110011110100111100111100 (
0("
0)"
07"
08"
0<"
0="
0@"
0A"
0D"
0E"
0H"
0I"
1J"
b00101011011111100001010100010110001010001010111011010010101001101010101111110111000101011000100000001001110011110100111100111100 K"
#105000000
1!
1("
17"
1<"
1@"
1D"
1H"
#110000000
0!
0("
07"
0<"
0@"
0D"
0H"
#115000000
1!
b00101011011111100001010100010110001010001010111011010010101001101010101111110111000101011000100000001001110011110100111100111100 *
1("
17"
1<"
1@"
1D"
1H"
b1 M"
b10001011100001001110101100000001 O"
#120000000
0!
0("
07"
0<"
0@"
0D"
0H"
#125000000
1!
b10100000111110101111111000010111100010000101010000101100101100010010001110100011001110010011100100101010011011000111011000000101 +
1("
17"
1<"
1@"
1D"
1H"
b10 M"
b01010010001110000110101111100101 O"
#130000000
0!
0("
07"
0<"
0@"
0D"
0H"
#135000000
1!
b11110010110000101001010111110010011110101001011010111001010000110101100100110101100000000111101001110011010110011111011001111111 ,
1("
17"
1<"
1@"
1D"
1H"
b11 M"
b11001111010000101101001010001111 O"
#140000000
0!
0("
07"
0<"
0@"
0D"
0H"
#145000000
1!
b00111101100000000100011101111101010001110001011011111110001111100001111000100011011111100100010001101101011110101000100000111011 -
1("
17"
1<"
1@"
1D"
1H"
b100 M"
b11010010110001001110001000111100 O"
#150000000
0!
0("
07"
0<"
0@"
0D"
0H"
#155000000
1!
b11101111010001001010010101000001101010000101001001011011011111111011011001110001001001010011101111011011000010111010110100000000 .
1("
17"
1<"
1@"
1D"
1H"
b101 M"
b00111011100101010110001110111001 O"
#160000000
0!
0("
07"
0<"
0@"
0D"
0H"
#165000000
1!
b11010100110100011100011011111000011111001000001110011101100001111100101011110010101110001011110000010001111110010001010110111100 /
1("
17"
1<"
1@"
1D"
1H"
b110 M"
b10111001010110010110010110000010 O"
#170000000
0!
0("
07"
0<"
0@"
0D"
0H"
#175000000
1!
b01101101100010001010001101111010000100010000101100111110111111011101101111111001100001100100000111001010000000001001001111111101 0
1("
17"
1<"
1@"
1D"
1H"
b111 M"
b00100011110111000101010001110100 O"
#180000000
0!
0("
07"
0<"
0@"
0D"
0H"
#185000000
1!
b01001110010101001111011100001110010111110101111111001001111100111000010010100110010011111011001001001110101001101101110001001111 1
1("
17"
1<"
1@"
1D"
1H"
b1000 M"
b10100100100001101000010000101111 O"
#190000000
0!
0("
07"
0<"
0@"
0D"
0H"
#195000000
1!
b11101010110100100111001100100001101101011000110110111010110100100011000100101011111101010110000001111111100011010010100100101111 2
1("
17"
1<"
1@"
1D"
1H"
b1001 M"
b01000110101001010001010111010010 O"
#200000000
0!
0("
07"
0<"
0@"
0D"
0H"
#205000000
1!
b10101100011101110110011011110011000110011111101011011100001000010010100011010001001010010100000101010111010111000000000001101110 3
1("
17"
1<"
1@"
1D"
1H"
b1010 M"
b01111100011000111001111101011011 O"
#210000000
0!
0("
07"
0<"
0@"
0D"
0H"
#215000000
1!
b11010000000101001111100110101000110010011110111000100101100010011110000100111111000011001100100010110110011000110000110010100110 4
1("
17"
1<"
1@"
1D"
1H"
#220000000
0!
0("
07"
0<"
0@"
0D"
0H"
#225000000
1!
1&
0'
1("
17"
1<"
1@"
1D"
1H"
0J"
1L"
1N"
#230000000
0!
0("
07"
0<"
0@"
0D"
0H"
#235000000
1!
1("
17"
1<"
1@"
1D"
1H"
#240000000
0!
0("
07"
0<"
0@"
0D"
0H"
#245000000
1!
1("
17"
1<"
1@"
1D"
1H"
#250000000
0!
0("
07"
0<"
0@"
0D"
0H"
#255000000
1!
1("
17"
1<"
1@"
1D"
1H"
#260000000
0!
0("
07"
0<"
0@"
0D"
0H"
#265000000
1!
1("
17"
1<"
1@"
1D"
1H"
#270000000
0!
0("
07"
0<"
0@"
0D"
0H"
#275000000
1!
1("
17"
1<"
1@"
1D"
1H"
#280000000
0!
0("
07"
0<"
0@"
0D"
0H"
#285000000
1!
1("
17"
1<"
1@"
1D"
1H"
#290000000
0!
0("
07"
0<"
0@"
0D"
0H"
#295000000
1!
1("
17"
1<"
1@"
1D"
1H"
#300000000
0!
0("
07"
0<"
0@"
0D"
0H"
#305000000
1!
1("
17"
1<"
1@"
1D"
1H"
#310000000
0!
0("
07"
0<"
0@"
0D"
0H"
#315000000
1!
1("
17"
1<"
1@"
1D"
1H"
#320000000
0!
0("
07"
0<"
0@"
0D"
0H"
#325000000
1!
1#
b01001000011001010110110001101100011011110010000001010111011011110111001001101100011001000010000000100000001000000010000000100000 $
1("
1*"
b01001000011001010110110001101100011011110010000001010111011011110111001001101100011001000010000000100000001000000010000000100000 +"
17"
1<"
1@"
1D"
1H"
#330000000
0!
0("
07"
0<"
0@"
0D"
0H"
#335000000
1!
1("
17"
1<"
1@"
1D"
1H"
#340000000
0!
0("
07"
0<"
0@"
0D"
0H"
#345000000
1!
1("
1/"
17"
19"
1<"
1@"
1D"
1H"
#350000000
0!
0("
07"
0<"
0@"
0D"
0H"
#355000000
1!
b00101011 5
b00101000 6
b10101011 7
b00001001 8
b01111110 9
b10101110 :
b11110111 ;
b11001111 <
b00010101 =
b11010010 >
b00010101 ?
b01001111 @
b00010110 A
b10100110 B
b10001000 C
b00111100 D
b01001000 u
b01101111 v
b01110010 w
b00100000 x
b01100101 y
b00100000 z
b01101100 {
b00100000 |
b01101100 }
b01010111 !"
b01100100 ""
b00100000 #"
b01101100 $"
b01101111 %"
b00100000 &"
b00100000 '"
1("
10"
17"
1;"
1<"
1@"
1D"
1H"
#360000000
0!
0("
07"
0<"
0@"
0D"
0H"
#365000000
1!
b01100011 5
b01000111 6
b11011001 7
b00101001 8
b00011011 9
b10001110 :
b10011011 ;
b11101111 <
b01111001 =
b10000101 >
b01110001 ?
b01101111 @
b01111010 A
b11001001 B
b10101000 C
b00011100 D
1("
b1 ."
0/"
11"
17"
09"
b1 :"
1<"
1>"
1@"
1D"
1H"
#370000000
0!
0("
07"
0<"
0@"
0D"
0H"
#375000000
1!
b11111011 E
b10100000 F
b00110101 G
b10100101 H
b10101111 I
b00011001 J
b00010100 K
b11011111 L
b10110110 M
b10010111 N
b10100011 O
b10101000 P
b11011010 Q
b11011101 R
b11000010 S
b10011100 T
1("
00"
12"
17"
0;"
1<"
1?"
1@"
1D"
1H"
#380000000
0!
0("
07"
0<"
0@"
0D"
0H"
#385000000
1!
1("
01"
13"
17"
1<"
0>"
1@"
1B"
1D"
1H"
#390000000
0!
0("
07"
0<"
0@"
0D"
0H"
#395000000
1!
b11111011 U
b10100000 V
b00110101 W
b10100101 X
b00011001 Y
b00010100 Z
b11011111 [
b10101111 \
b10100011 ]
b10101000 ^
b10110110 _
b10010111 `
b10011100 a
b11011010 b
b11011101 c
b11000010 d
1("
02"
14"
17"
1<"
0?"
1@"
1C"
1D"
1H"
#400000000
0!
0("
07"
0<"
0@"
0D"
0H"
#405000000
1!
1("
03"
15"
17"
1<"
1@"
0B"
1D"
1F"
1H"
#410000000
0!
0("
07"
0<"
0@"
0D"
0H"
#415000000
1!
b11111001 e
b00010101 f
b01111011 g
b11101110 h
b10101011 i
b10110001 j
b10001100 k
b10000000 l
b00000000 m
b10001010 n
b11100001 o
b01100010 p
b10001111 q
b11101000 r
b10010111 s
b01010011 t
1("
04"
16"
17"
1<"
1@"
0C"
1D"
1G"
1H"
#420000000
0!
0("
07"
0<"
0@"
0D"
0H"
#425000000
1!
b11111001 u
b00010101 v
b01111011 w
b11101110 x
b10101011 y
b10110001 z
b10001100 {
b10000000 |
b00000000 }
b10001010 !"
b11100001 ""
b01100010 #"
b10001111 $"
b11101000 %"
b10010111 &"
b01010011 '"
1("
1/"
05"
17"
19"
1<"
1@"
1D"
0F"
1H"
#430000000
0!
0("
07"
0<"
0@"
0D"
0H"
#435000000
1!
b01011001 5
b10011101 6
b01011000 7
b11000100 8
b01010001 9
b11100101 :
b00101111 ;
b11101100 <
b11111110 =
b10100110 >
b11011000 ?
b00010100 @
b10011000 A
b01011001 B
b10101110 C
b01010110 D
1("
10"
06"
17"
1;"
1<"
1@"
1D"
0G"
1H"
#440000000
0!
0("
07"
0<"
0@"
0D"
0H"
#445000000
1!
1("
b10 ."
0/"
11"
17"
09"
b10 :"
1<"
1>"
1@"
1D"
1H"
#450000000
0!
0("
07"
0<"
0@"
0D"
0H"
#455000000
1!
b11001011 E
b01011110 F
b01101010 G
b00011100 H
b11010001 I
b11011001 J
b00010101 K
b11001110 L
b10111011 M
b00100100 N
b01100001 O
b11111010 P
b01000110 Q
b11001011 R
b11100100 S
b10110001 T
1("
00"
12"
17"
0;"
1<"
1?"
1@"
1D"
1H"
#460000000
0!
0("
07"
0<"
0@"
0D"
0H"
#465000000
1!
1("
01"
13"
17"
1<"
0>"
1@"
1B"
1D"
1H"
#470000000
0!
0("
07"
0<"
0@"
0D"
0H"
#475000000
1!
b11001011 U
b01011110 V
b01101010 W
b00011100 X
b11011001 Y
b00010101 Z
b11001110 [
b11010001 \
b01100001 ]
b11111010 ^
b10111011 _
b00100100 `
b10110001 a
b01000110 b
b11001011 c
b11100100 d
1("
02"
14"
17"
1<"
0?"
1@"
1C"
1D"
1H"
#480000000
0!
0("
07"
0<"
0@"
0D"
0H"
#485000000
1!
1("
03"
15"
17"
1<"
1@"
0B"
1D"
1F"
1H"
#490000000
0!
0("
07"
0<"
0@"
0D"
0H"
#495000000
1!
b00101101 e
b00111111 f
b11101101 g
b10010000 h
b01110000 i
b00100111 j
b11110000 k
b00101101 l
b00011000 m
b01101110 n
b10001111 o
b10110010 p
b10000111 q
b10000001 r
b01000110 s
b00000010 t
1("
04"
16"
17"
1<"
1@"
0C"
1D"
1G"
1H"
#500000000
0!
0("
07"
0<"
0@"
0D"
0H"
#505000000
1!
b00101101 u
b00111111 v
b11101101 w
b10010000 x
b01110000 y
b00100111 z
b11110000 {
b00101101 |
b00011000 }
b01101110 !"
b10001111 ""
b10110010 #"
b10000111 $"
b10000001 %"
b01000110 &"
b00000010 '"
1("
1/"
05"
17"
19"
1<"
1@"
1D"
0F"
1H"
#510000000
0!
0("
07"
0<"
0@"
0D"
0H"
#515000000
1!
b11011111 5
b01000101 6
b10110100 7
b11100011 8
b10110010 9
b10110001 :
b11000101 ;
b01110100 <
b10001101 =
b11010111 >
b00001111 ?
b01000100 @
b01110101 A
b11000010 B
b00111100 C
b01111101 D
1("
10"
06"
17"
1;"
1<"
1@"
1D"
0G"
1H"
#520000000
0!
0("
07"
0<"
0@"
0D"
0H"
#525000000
1!
1("
b11 ."
0/"
11"
17"
09"
b11 :"
1<"
1>"
1@"
1D"
1H"
#530000000
0!
0("
07"
0<"
0@"
0D"
0H"
#535000000
1!
b10011110 E
b01101110 F
b10001101 G
b00010001 H
b00110111 I
b11001000 J
b10100110 K
b10010010 L
b01011101 M
b00001110 N
b01110110 O
b00011011 P
b10011101 Q
b00100101 R
b11101011 S
b11111111 T
1("
00"
12"
17"
0;"
1<"
1?"
1@"
1D"
1H"
#540000000
0!
0("
07"
0<"
0@"
0D"
0H"
#545000000
1!
1("
01"
13"
17"
1<"
0>"
1@"
1B"
1D"
1H"
#550000000
0!
0("
07"
0<"
0@"
0D"
0H"
#555000000
1!
b10011110 U
b01101110 V
b10001101 W
b00010001 X
b11001000 Y
b10100110 Z
b10010010 [
b00110111 \
b01110110 ]
b00011011 ^
b01011101 _
b00001110 `
b11111111 a
b10011101 b
b00100101 c
b11101011 d
1("
02"
14"
17"
1<"
0?"
1@"
1C"
1D"
1H"
#560000000
0!
0("
07"
0<"
0@"
0D"
0H"
#565000000
1!
1("
03"
15"
17"
1<"
1@"
0B"
1D"
1F"
1H"
#570000000
0!
0("
07"
0<"
0@"
0D"
0H"
#575000000
1!
b11101101 e
b10101011 f
b11010100 g
b10011110 h
b10001001 j
b01110000 k
b10000110 l
b10100000 m
b01000010 n
b11001010 o
b00011100 p
b11100010 q
b00101110 r
b00001001 s
b11000111 t
1("
04"
16"
17"
1<"
1@"
0C"
1D"
1G"
1H"
#580000000
0!
0("
07"
0<"
0@"
0D"
0H"
#585000000
1!
b11101101 u
b10101011 v
b11010100 w
b10011110 x
b10001001 z
b01110000 {
b10000110 |
b10100000 }
b01000010 !"
b11001010 ""
b00011100 #"
b11100010 $"
b00101110 %"
b00001001 &"
b11000111 '"
1("
1/"
05"
17"
19"
1<"
1@"
1D"
0F"
1H"
#590000000
0!
0("
07"
0<"
0@"
0D"
0H"
#595000000
1!
b11010000 5
b11101100 6
b11001010 7
b11110011 8
b11110000 9
b10011111 :
b01010011 ;
b11111100 <
b11100111 =
b10111100 >
b10110100 ?
b10010100 @
b10011111 A
b00010000 B
b01001101 C
b11111100 D
1("
10"
06"
17"
1;"
1<"
1@"
1D"
0G"
1H"
#600000000
0!
0("
07"
0<"
0@"
0D"
0H"
#605000000
1!
1("
b100 ."
0/"
11"
17"
09"
b100 :"
1<"
1>"
1@"
1D"
1H"
#610000000
0!
0("
07"
0<"
0@"
0D"
0H"
#615000000
1!
b01110000 E
b11001110 F
b01110100 G
b00001101 H
b10001100 I
b11011011 J
b11101101 K
b10110000 L
b10010100 M
b01100101 N
b10001101 O
b00100010 P
b11011011 Q
b11001010 R
b11100011 S
b10110000 T
1("
00"
12"
17"
0;"
1<"
1?"
1@"
1D"
1H"
#620000000
0!
0("
07"
0<"
0@"
0D"
0H"
#625000000
1!
1("
01"
13"
17"
1<"
0>"
1@"
1B"
1D"
1H"
#630000000
0!
0("
07"
0<"
0@"
0D"
0H"
#635000000
1!
b01110000 U
b11001110 V
b01110100 W
b00001101 X
b11011011 Y
b11101101 Z
b10110000 [
b10001100 \
b10001101 ]
b00100010 ^
b10010100 _
b01100101 `
b10110000 a
b11011011 b
b11001010 c
b11100011 d
1("
02"
14"
17"
1<"
0?"
1@"
1C"
1D"
1H"
#640000000
0!
0("
07"
0<"
0@"
0D"
0H"
#645000000
1!
1("
03"
15"
17"
1<"
1@"
0B"
1D"
1F"
1H"
#650000000
0!
0("
07"
0<"
0@"
0D"
0H"
#655000000
1!
b10101011 e
b01010010 f
b01111101 g
b00010011 h
b11100001 i
b10110010 j
b01100010 k
b01000010 l
b01100001 m
b00010001 n
b10110010 o
b01110101 p
b10111101 q
b00101011 r
b00110111 s
b00100011 t
1("
04"
16"
17"
1<"
1@"
0C"
1D"
1G"
1H"
#660000000
0!
0("
07"
0<"
0@"
0D"
0H"
#665000000
1!
b10101011 u
b01010010 v
b01111101 w
b00010011 x
b11100001 y
b10110010 z
b01100010 {
b01000010 |
b01100001 }
b00010001 !"
b10110010 ""
b01110101 #"
b10111101 $"
b00101011 %"
b00110111 &"
b00100011 '"
1("
1/"
05"
17"
19"
1<"
1@"
1D"
0F"
1H"
#670000000
0!
0("
07"
0<"
0@"
0D"
0H"
#675000000
1!
b01000100 5
b11111010 6
b11001011 7
b11001000 8
b10100101 9
b11100000 :
b00010011 ;
b01001001 <
b11000100 =
b01001010 >
b10010111 ?
b11011000 @
b11111100 A
b01010100 B
b00001100 C
b00100011 D
1("
10"
06"
17"
1;"
1<"
1@"
1D"
0G"
1H"
#680000000
0!
0("
07"
0<"
0@"
0D"
0H"
#685000000
1!
1("
b101 ."
0/"
11"
17"
09"
b101 :"
1<"
1>"
1@"
1D"
1H"
#690000000
0!
0("
07"
0<"
0@"
0D"
0H"
#695000000
1!
b00011011 E
b00101101 F
b00011111 G
b11101000 H
b00000110 I
b11100001 J
b01111101 K
b00111011 L
b00011100 M
b11010110 N
b10001000 O
b01100001 P
b10110000 Q
b00100000 R
b11111110 S
b00100110 T
1("
00"
12"
17"
0;"
1<"
1?"
1@"
1D"
1H"
#700000000
0!
0("
07"
0<"
0@"
0D"
0H"
#705000000
1!
1("
01"
13"
17"
1<"
0>"
1@"
1B"
1D"
1H"
#710000000
0!
0("
07"
0<"
0@"
0D"
0H"
#715000000
1!
b00011011 U
b00101101 V
b00011111 W
b11101000 X
b11100001 Y
b01111101 Z
b00111011 [
b00000110 \
b10001000 ]
b01100001 ^
b00011100 _
b11010110 `
b00100110 a
b10110000 b
b00100000 c
b11111110 d
1("
02"
14"
17"
1<"
0?"
1@"
1C"
1D"
1H"
#720000000
0!
0("
07"
0<"
0@"
0D"
0H"
#725000000
1!
1("
03"
15"
17"
1<"
1@"
0B"
1D"
1F"
1H"
#730000000
0!
0("
07"
0<"
0@"
0D"
0H"
#735000000
1!
b10100000 e
b00001100 f
b01001111 g
b11101001 h
b01100111 i
b11000100 j
b01101101 k
b01111011 l
b10011011 m
b01011001 n
b01111100 o
b01000000 p
b00001000 q
b00010000 r
b01000110 s
b00010100 t
1("
04"
16"
17"
1<"
1@"
0C"
1D"
1G"
1H"
#740000000
0!
0("
07"
0<"
0@"
0D"
0H"
#745000000
1!
b10100000 u
b00001100 v
b01001111 w
b11101001 x
b01100111 y
b11000100 z
b01101101 {
b01111011 |
b10011011 }
b01011001 !"
b01111100 ""
b01000000 #"
b00001000 $"
b00010000 %"
b01000110 &"
b00010100 '"
1("
1/"
05"
17"
19"
1<"
1@"
1D"
0F"
1H"
#750000000
0!
0("
07"
0<"
0@"
0D"
0H"
#755000000
1!
b01110100 5
b01110000 6
b10000101 7
b11111000 8
b10110110 9
b01000111 :
b10011111 ;
b10000010 <
b01011101 =
b11000100 >
b11000100 ?
b01010101 @
b11110000 A
b10010111 B
b11111010 C
b10101000 D
1("
10"
06"
17"
1;"
1<"
1@"
1D"
0G"
1H"
#760000000
0!
0("
07"
0<"
0@"
0D"
0H"
#765000000
1!
1("
b110 ."
0/"
11"
17"
09"
b110 :"
1<"
1>"
1@"
1D"
1H"
