AES Encryption/work/tb_aes_enc_top.vcd
$date
  Wed Jul 23 11:34:34 2025
$end
$version
  GHDL v0
$end
$timescale
  1 fs
$end
$scope module standard $end
$upscope $end
$scope module textio $end
$upscope $end
$scope module std_logic_1164 $end
$upscope $end
$scope module numeric_std $end
$upscope $end
$scope module defs_pkg $end
$upscope $end
$scope module tb_aes_enc_top $end
$var reg 1 ! clk_tb $end
$var reg 1 " reset_tb $end
$var reg 1 # enable_tb $end
$var reg 128 $ key_tb[127:0] $end
$var reg 128 % plaintext_tb[127:0] $end
$var reg 128 & ciphertext_tb[127:0] $end
$var reg 1 ' done_tb $end
$scope module uut $end
$var reg 1 ( clk $end
$var reg 1 ) reset $end
$var reg 1 * enable $end
$var reg 128 + key[127:0] $end
$var reg 128 , plaintext[127:0] $end
$var reg 128 - ciphertext[127:0] $end
$var reg 1 . done $end
$comment state is not handled $end
$comment next_state is not handled $end
$var reg 1 / done_key_expansion $end
$var reg 1 0 done_aes_enc $end
$comment round_keys is not handled $end
$var reg 1 1 enable_key_expansion $end
$var reg 1 2 enable_aes_enc $end
$scope module key_expansion_inst $end
$var reg 1 3 clk $end
$var reg 1 4 reset $end
$var reg 1 5 enable $end
$var reg 128 6 key_in[127:0] $end
$var reg 1 7 done $end
$comment keys_out is not handled $end
$comment state is not handled $end
$var integer 32 8 cur_round $end
$comment temp_reg is not handled $end
$var reg 1 9 done_internal $end
$var reg 32 : g_result[31:0] $end
$upscope $end
$scope module aes_enc_inst $end
$var reg 1 ; clk $end
$var reg 1 < reset $end
$var reg 1 = enable $end
$var reg 128 > data_in[127:0] $end
$comment round_keys is not handled $end
$var reg 128 ? data_out[127:0] $end
$var reg 1 @ done $end
$comment current_state is not handled $end
$comment next_state is not handled $end
$comment input_reg is not handled $end
$comment add_round_key_in is not handled $end
$var integer 32 A cur_round_internal $end
$var reg 1 B add_round_key_enable $end
$var reg 1 C add_round_key_done $end
$comment add_round_key_state_out is not handled $end
$var reg 1 D sub_bytes_enable $end
$var reg 1 E sub_bytes_done $end
$comment sub_bytes_state_out is not handled $end
$var reg 1 F shift_rows_enable $end
$var reg 1 G shift_rows_done $end
$comment shift_rows_state_out is not handled $end
$var reg 1 H mix_column_enable $end
$var reg 1 I mix_column_done $end
$comment mix_column_state_out is not handled $end
$scope module add_round_key_inst $end
$var reg 1 J clk $end
$var reg 1 K reset $end
$var reg 1 L enable $end
$comment state_in is not handled $end
$comment round_keys is not handled $end
$var integer 32 M cur_round $end
$var reg 1 N done $end
$comment state_out is not handled $end
$upscope $end
$scope module sub_bytes_inst $end
$var reg 1 O clk $end
$var reg 1 P reset $end
$var reg 1 Q enable $end
$comment state_in is not handled $end
$var reg 1 R done $end
$comment state_out is not handled $end
$upscope $end
$scope module shift_rows_inst $end
$var reg 1 S clk $end
$var reg 1 T reset $end
$var reg 1 U enable $end
$comment state_in is not handled $end
$var reg 1 V done $end
$comment state_out is not handled $end
$upscope $end
$scope module mix_column_inst $end
$var reg 1 W clk $end
$var reg 1 X reset $end
$var reg 1 Y enable $end
$comment state_in is not handled $end
$var reg 1 Z done $end
$comment state_out is not handled $end
$upscope $end
$upscope $end
$upscope $end
$upscope $end
$enddefinitions $end
#0
0!
1"
0#
b00000000000000000000000000000000000000000000000000000000000000000000000000000000000000000000000000000000000000000000000000000000 $
b00000000000000000000000000000000000000000000000000000000000000000000000000000000000000000000000000000000000000000000000000000000 %
b00000000000000000000000000000000000000000000000000000000000000000000000000000000000000000000000000000000000000000000000000000000 &
0'
0(
1)
0*
b00000000000000000000000000000000000000000000000000000000000000000000000000000000000000000000000000000000000000000000000000000000 +
b00000000000000000000000000000000000000000000000000000000000000000000000000000000000000000000000000000000000000000000000000000000 ,
b00000000000000000000000000000000000000000000000000000000000000000000000000000000000000000000000000000000000000000000000000000000 -
0.
0/
00
01
02
03
14
05
b00000000000000000000000000000000000000000000000000000000000000000000000000000000000000000000000000000000000000000000000000000000 6
07
b0 8
09
b00000000000000000000000000000000 :
0;
1<
0=
b00000000000000000000000000000000000000000000000000000000000000000000000000000000000000000000000000000000000000000000000000000000 >
b00000000000000000000000000000000000000000000000000000000000000000000000000000000000000000000000000000000000000000000000000000000 ?
0@
b0 A
0B
UC
0D
UE
0F
UG
0H
UI
0J
1K
0L
b0 M
UN
0O
1P
0Q
UR
0S
1T
0U
UV
0W
1X
0Y
UZ
#5000000
1!
1(
13
1;
0C
0E
0G
0I
1J
0N
1O
0R
1S
0V
1W
0Z
#10000000
0!
0(
03
0;
0J
0O
0S
0W
#15000000
1!
1(
13
1;
1J
1O
1S
1W
#20000000
0!
0"
1#
b00101011011111100001010100010110001010001010111011010010101001101010101111110111000101011000100000001001110011110100111100111100 $
b01001000011001010110110001101100011011110010000001010111011011110111001001101100011001000010000000100000001000000010000000100000 %
0(
0)
1*
b00101011011111100001010100010110001010001010111011010010101001101010101111110111000101011000100000001001110011110100111100111100 +
b01001000011001010110110001101100011011110010000001010111011011110111001001101100011001000010000000100000001000000010000000100000 ,
03
04
b00101011011111100001010100010110001010001010111011010010101001101010101111110111000101011000100000001001110011110100111100111100 6
0;
0<
b01001000011001010110110001101100011011110010000001010111011011110111001001101100011001000010000000100000001000000010000000100000 >
0J
0K
0O
0P
0S
0T
0W
0X
#25000000
1!
1(
11
13
15
1;
1J
1O
1S
1W
#30000000
0!
0#
0(
0*
03
0;
0J
0O
0S
0W
#35000000
1!
1(
13
1;
1J
1O
1S
1W
#40000000
0!
0(
03
0;
0J
0O
0S
0W
#45000000
1!
1(
13
b1 8
b10001011100001001110101100000001 :
1;
1J
1O
1S
1W
#50000000
0!
0(
03
0;
0J
0O
0S
0W
#55000000
1!
1(
13
b10 8
b01010010001110000110101111100101 :
1;
1J
1O
1S
1W
#60000000
0!
0(
03
0;
0J
0O
0S
0W
#65000000
1!
1(
13
b11 8
b11001111010000101101001010001111 :
1;
1J
1O
1S
1W
#70000000
0!
0(
03
0;
0J
0O
0S
0W
#75000000
1!
1(
13
b100 8
b11010010110001001110001000111100 :
1;
1J
1O
1S
1W
#80000000
0!
0(
03
0;
0J
0O
0S
0W
#85000000
1!
1(
13
b101 8
b00111011100101010110001110111001 :
1;
1J
1O
1S
1W
#90000000
0!
0(
03
0;
0J
0O
0S
0W
#95000000
1!
1(
13
b110 8
b10111001010110010110010110000010 :
1;
1J
1O
1S
1W
#100000000
0!
0(
03
0;
0J
0O
0S
0W
#105000000
1!
1(
13
b111 8
b00100011110111000101010001110100 :
1;
1J
1O
1S
1W
#110000000
0!
0(
03
0;
0J
0O
0S
0W
#115000000
1!
1(
13
b1000 8
b10100100100001101000010000101111 :
1;
1J
1O
1S
1W
#120000000
0!
0(
03
0;
0J
0O
0S
0W
#125000000
1!
1(
13
b1001 8
b01000110101001010001010111010010 :
1;
1J
1O
1S
1W
#130000000
0!
0(
03
0;
0J
0O
0S
0W
#135000000
1!
1(
13
b1010 8
b01111100011000111001111101011011 :
1;
1J
1O
1S
1W
#140000000
0!
0(
03
0;
0J
0O
0S
0W
#145000000
1!
1(
13
1;
1J
1O
1S
1W
#150000000
0!
0(
03
0;
0J
0O
0S
0W
#155000000
1!
1(
1/
13
17
19
1;
1J
1O
1S
1W
#160000000
0!
0(
03
0;
0J
0O
0S
0W
#165000000
1!
1(
01
12
13
05
1;
1=
1J
1O
1S
1W
#170000000
0!
0(
03
0;
0J
0O
0S
0W
#175000000
1!
1(
13
b1 8
b10001011100001001110101100000001 :
1;
1J
1O
1S
1W
#180000000
0!
0(
03
0;
0J
0O
0S
0W
#185000000
1!
1(
13
b10 8
b01010010001110000110101111100101 :
1;
1B
1J
1L
1O
1S
1W
#190000000
0!
0(
03
0;
0J
0O
0S
0W
#195000000
1!
1(
13
b11 8
b11001111010000101101001010001111 :
1;
1C
1J
1N
1O
1S
1W
#200000000
0!
0(
03
0;
0J
0O
0S
0W
#205000000
1!
1(
13
b100 8
b11010010110001001110001000111100 :
1;
b1 A
0B
1D
1J
0L
b1 M
1O
1Q
1S
1W
#210000000
0!
0(
03
0;
0J
0O
0S
0W
#215000000
1!
1(
13
b101 8
b00111011100101010110001110111001 :
1;
0C
1E
1J
0N
1O
1R
1S
1W
#220000000
0!
0(
03
0;
0J
0O
0S
0W
#225000000
1!
1(
13
b110 8
b10111001010110010110010110000010 :
1;
0D
1F
1J
1O
0Q
1S
1U
1W
#230000000
0!
0(
03
0;
0J
0O
0S
0W
#235000000
1!
1(
13
b111 8
b00100011110111000101010001110100 :
1;
0E
1G
1J
1O
0R
1S
1V
1W
#240000000
0!
0(
03
0;
0J
0O
0S
0W
#245000000
1!
1(
13
b1000 8
b10100100100001101000010000101111 :
1;
0F
1H
1J
1O
1S
0U
1W
1Y
#250000000
0!
0(
03
0;
0J
0O
0S
0W
#255000000
1!
1(
13
b1001 8
b01000110101001010001010111010010 :
1;
0G
1I
1J
1O
1S
0V
1W
1Z
#260000000
0!
0(
03
0;
0J
0O
0S
0W
#265000000
1!
1(
13
b1010 8
b01111100011000111001111101011011 :
1;
1B
0H
1J
1L
1O
1S
1W
0Y
#270000000
0!
0(
03
0;
0J
0O
0S
0W
#275000000
1!
1(
13
1;
1C
0I
1J
1N
1O
1S
1W
0Z
#280000000
0!
0(
03
0;
0J
0O
0S
0W
#285000000
1!
1(
13
1;
b10 A
0B
1D
1J
0L
b10 M
1O
1Q
1S
1W
#290000000
0!
0(
03
0;
0J
0O
0S
0W
#295000000
1!
1(
13
1;
0C
1E
1J
0N
1O
1R
1S
1W
#300000000
0!
0(
03
0;
0J
0O
0S
0W
#305000000
1!
1(
13
1;
0D
1F
1J
1O
0Q
1S
1U
1W
#310000000
0!
0(
03
0;
0J
0O
0S
0W
#315000000
1!
1(
13
1;
0E
1G
1J
1O
0R
1S
1V
1W
#320000000
0!
0(
03
0;
0J
0O
0S
0W
#325000000
1!
1(
13
1;
0F
1H
1J
1O
1S
0U
1W
1Y
#330000000
0!
0(
03
0;
0J
0O
0S
0W
#335000000
1!
1(
13
1;
0G
1I
1J
1O
1S
0V
1W
1Z
#340000000
0!
0(
03
0;
0J
0O
0S
0W
#345000000
1!
1(
13
1;
1B
0H
1J
1L
1O
1S
1W
0Y
#350000000
0!
0(
03
0;
0J
0O
0S
0W
#355000000
1!
1(
13
1;
1C
0I
1J
1N
1O
1S
1W
0Z
#360000000
0!
0(
03
0;
0J
0O
0S
0W
#365000000
1!
1(
13
1;
b11 A
0B
1D
1J
0L
b11 M
1O
1Q
1S
1W
#370000000
0!
0(
03
0;
0J
0O
0S
0W
#375000000
1!
1(
13
1;
0C
1E
1J
0N
1O
1R
1S
1W
#380000000
0!
0(
03
0;
0J
0O
0S
0W
#385000000
1!
1(
13
1;
0D
1F
1J
1O
0Q
1S
1U
1W
#390000000
0!
0(
03
0;
0J
0O
0S
0W
#395000000
1!
1(
13
1;
0E
1G
1J
1O
0R
1S
1V
1W
#400000000
0!
0(
03
0;
0J
0O
0S
0W
#405000000
1!
1(
13
1;
0F
1H
1J
1O
1S
0U
1W
1Y
#410000000
0!
0(
03
0;
0J
0O
0S
0W
#415000000
1!
1(
13
1;
0G
1I
1J
1O
1S
0V
1W
1Z
#420000000
0!
0(
03
0;
0J
0O
0S
0W
#425000000
1!
1(
13
1;
1B
0H
1J
1L
1O
1S
1W
0Y
#430000000
0!
0(
03
0;
0J
0O
0S
0W
#435000000
1!
1(
13
1;
1C
0I
1J
1N
1O
1S
1W
0Z
#440000000
0!
0(
03
0;
0J
0O
0S
0W
#445000000
1!
1(
13
1;
b100 A
0B
1D
1J
0L
b100 M
1O
1Q
1S
1W
#450000000
0!
0(
03
0;
0J
0O
0S
0W
#455000000
1!
1(
13
1;
0C
1E
1J
0N
1O
1R
1S
1W
#460000000
0!
0(
03
0;
0J
0O
0S
0W
#465000000
1!
1(
13
1;
0D
1F
1J
1O
0Q
1S
1U
1W
#470000000
0!
0(
03
0;
0J
0O
0S
0W
#475000000
1!
1(
13
1;
0E
1G
1J
1O
0R
1S
1V
1W
#480000000
0!
0(
03
0;
0J
0O
0S
0W
#485000000
1!
1(
13
1;
0F
1H
1J
1O
1S
0U
1W
1Y
#490000000
0!
0(
03
0;
0J
0O
0S
0W
#495000000
1!
1(
13
1;
0G
1I
1J
1O
1S
0V
1W
1Z
#500000000
0!
0(
03
0;
0J
0O
0S
0W
#505000000
1!
1(
13
1;
1B
0H
1J
1L
1O
1S
1W
0Y
#510000000
0!
0(
03
0;
0J
0O
0S
0W
#515000000
1!
1(
13
1;
1C
0I
1J
1N
1O
1S
1W
0Z
#520000000
0!
0(
03
0;
0J
0O
0S
0W
#525000000
1!
1(
13
1;
b101 A
0B
1D
1J
0L
b101 M
1O
1Q
1S
1W
#530000000
0!
0(
03
0;
0J
0O
0S
0W
#535000000
1!
1(
13
1;
0C
1E
1J
0N
1O
1R
1S
1W
#540000000
0!
0(
03
0;
0J
0O
0S
0W
#545000000
1!
1(
13
1;
0D
1F
1J
1O
0Q
1S
1U
1W
#550000000
0!
0(
03
0;
0J
0O
0S
0W
#555000000
1!
1(
13
1;
0E
1G
1J
1O
0R
1S
1V
1W
#560000000
0!
0(
03
0;
0J
0O
0S
0W
#565000000
1!
1(
13
1;
0F
1H
1J
1O
1S
0U
1W
1Y
#570000000
0!
0(
03
0;
0J
0O
0S
0W
#575000000
1!
1(
13
1;
0G
1I
1J
1O
1S
0V
1W
1Z
#580000000
0!
0(
03
0;
0J
0O
0S
0W
#585000000
1!
1(
13
1;
1B
0H
1J
1L
1O
1S
1W
0Y
#590000000
0!
0(
03
0;
0J
0O
0S
0W
#595000000
1!
1(
13
1;
1C
0I
1J
1N
1O
1S
1W
0Z
#600000000
0!
0(
03
0;
0J
0O
0S
0W
#605000000
1!
1(
13
1;
b110 A
0B
1D
1J
0L
b110 M
1O
1Q
1S
1W
#610000000
0!
0(
03
0;
0J
0O
0S
0W
#615000000
1!
1(
13
1;
0C
1E
1J
0N
1O
1R
1S
1W
#620000000
0!
0(
03
0;
0J
0O
0S
0W
#625000000
1!
1(
13
1;
0D
1F
1J
1O
0Q
1S
1U
1W
#630000000
0!
0(
03
0;
0J
0O
0S
0W
#635000000
1!
1(
13
1;
0E
1G
1J
1O
0R
1S
1V
1W
#640000000
0!
0(
03
0;
0J
0O
0S
0W
#645000000
1!
1(
13
1;
0F
1H
1J
1O
1S
0U
1W
1Y
#650000000
0!
0(
03
0;
0J
0O
0S
0W
#655000000
1!
1(
13
1;
0G
1I
1J
1O
1S
0V
1W
1Z
#660000000
0!
0(
03
0;
0J
0O
0S
0W
#665000000
1!
1(
13
1;
1B
0H
1J
1L
1O
1S
1W
0Y
#670000000
0!
0(
03
0;
0J
0O
0S
0W
#675000000
1!
1(
13
1;
1C
0I
1J
1N
1O
1S
1W
0Z
#680000000
0!
0(
03
0;
0J
0O
0S
0W
#685000000
1!
1(
13
1;
b111 A
0B
1D
1J
0L
b111 M
1O
1Q
1S
1W
#690000000
0!
0(
03
0;
0J
0O
0S
0W
#695000000
1!
1(
13
1;
0C
1E
1J
0N
1O
1R
1S
1W
#700000000
0!
0(
03
0;
0J
0O
0S
0W
#705000000
1!
1(
13
1;
0D
1F
1J
1O
0Q
1S
1U
1W
#710000000
0!
0(
03
0;
0J
0O
0S
0W
#715000000
1!
1(
13
1;
0E
1G
1J
1O
0R
1S
1V
1W
#720000000
0!
0(
03
0;
0J
0O
0S
0W
#725000000
1!
1(
13
1;
0F
1H
1J
1O
1S
0U
1W
1Y
#730000000
0!
0(
03
0;
0J
0O
0S
0W
#735000000
1!
1(
13
1;
0G
1I
1J
1O
1S
0V
1W
1Z
#740000000
0!
0(
03
0;
0J
0O
0S
0W
#745000000
1!
1(
13
1;
1B
0H
1J
1L
1O
1S
1W
0Y
#750000000
0!
0(
03
0;
0J
0O
0S
0W
#755000000
1!
1(
13
1;
1C
0I
1J
1N
1O
1S
1W
0Z
#760000000
0!
0(
03
0;
0J
0O
0S
0W
#765000000
1!
1(
13
1;
b1000 A
0B
1D
1J
0L
b1000 M
1O
1Q
1S
1W
#770000000
0!
0(
03
0;
0J
0O
0S
0W
#775000000
1!
1(
13
1;
0C
1E
1J
0N
1O
1R
1S
1W
#780000000
0!
0(
03
0;
0J
0O
0S
0W
#785000000
1!
1(
13
1;
0D
1F
1J
1O
0Q
1S
1U
1W
#790000000
0!
0(
03
0;
0J
0O
0S
0W
#795000000
1!
1(
13
1;
0E
1G
1J
1O
0R
1S
1V
1W
#800000000
0!
0(
03
0;
0J
0O
0S
0W
#805000000
1!
1(
13
1;
0F
1H
1J
1O
1S
0U
1W
1Y
#810000000
0!
0(
03
0;
0J
0O
0S
0W
#815000000
1!
1(
13
1;
0G
1I
1J
1O
1S
0V
1W
1Z
#820000000
0!
0(
03
0;
0J
0O
0S
0W
#825000000
1!
1(
13
1;
1B
0H
1J
1L
1O
1S
1W
0Y
#830000000
0!
0(
03
0;
0J
0O
0S
0W
#835000000
1!
1(
13
1;
1C
0I
1J
1N
1O
1S
1W
0Z
#840000000
0!
0(
03
0;
0J
0O
0S
0W
#845000000
1!
1(
13
1;
b1001 A
0B
1D
1J
0L
b1001 M
1O
1Q
1S
1W
#850000000
0!
0(
03
0;
0J
0O
0S
0W
#855000000
1!
1(
13
1;
0C
1E
1J
0N
1O
1R
1S
1W
#860000000
0!
0(
03
0;
0J
0O
0S
0W
#865000000
1!
1(
13
1;
0D
1F
1J
1O
0Q
1S
1U
1W
#870000000
0!
0(
03
0;
0J
0O
0S
0W
#875000000
1!
1(
13
1;
0E
1G
1J
1O
0R
1S
1V
1W
#880000000
0!
0(
03
0;
0J
0O
0S
0W
#885000000
1!
1(
13
1;
0F
1H
1J
1O
1S
0U
1W
1Y
#890000000
0!
0(
03
0;
0J
0O
0S
0W
#895000000
1!
1(
13
1;
0G
1I
1J
1O
1S
0V
1W
1Z
#900000000
0!
0(
03
0;
0J
0O
0S
0W
#905000000
1!
1(
13
1;
1B
0H
1J
1L
1O
1S
1W
0Y
#910000000
0!
0(
03
0;
0J
0O
0S
0W
#915000000
1!
1(
13
1;
1C
0I
1J
1N
1O
1S
1W
0Z
#920000000
0!
0(
03
0;
0J
0O
0S
0W
#925000000
1!
1(
13
1;
b1010 A
0B
1D
1J
0L
b1010 M
1O
1Q
1S
1W
#930000000
0!
0(
03
0;
0J
0O
0S
0W
#935000000
1!
1(
13
1;
0C
1E
1J
0N
1O
1R
1S
1W
#940000000
0!
0(
03
0;
0J
0O
0S
0W
#945000000
1!
1(
13
1;
0D
1F
1J
1O
0Q
1S
1U
1W
#950000000
0!
0(
03
0;
0J
0O
0S
0W
#955000000
1!
1(
13
1;
0E
1G
1J
1O
0R
1S
1V
1W
#960000000
0!
0(
03
0;
0J
0O
0S
0W
#965000000
1!
1(
13
1;
1B
0F
1J
1L
1O
1S
0U
1W
#970000000
0!
0(
03
0;
0J
0O
0S
0W
#975000000
1!
1(
13
1;
1C
0G
1J
1N
1O
1S
0V
1W
#980000000
0!
0(
03
0;
0J
0O
0S
0W
#985000000
1!
b00000111100010010010100011110010110101100000110010001000010010101101011001101110100111010111100110111010010111011001101100101110 &
1'
1(
b00000111100010010010100011110010110101100000110010001000010010101101011001101110100111010111100110111010010111011001101100101110 -
1.
13
1;
b00000111100010010010100011110010110101100000110010001000010010101101011001101110100111010111100110111010010111011001101100101110 ?
1@
0B
1J
0L
1O
1S
1W
#990000000
0!
0(
03
0;
0J
0O
0S
0W
#995000000
1!
b00000000000000000000000000000000000000000000000000000000000000000000000000000000000000000000000000000000000000000000000000000000 &
0'
1(
b00000000000000000000000000000000000000000000000000000000000000000000000000000000000000000000000000000000000000000000000000000000 -
0.
13
1;
b00000000000000000000000000000000000000000000000000000000000000000000000000000000000000000000000000000000000000000000000000000000 ?
0@
b0 A
0C
1J
b0 M
0N
1O
1S
1W
#1000000000
0!
0(
03
0;
0J
0O
0S
0W
#1005000000
1!
1(
13
1;
1J
1O
1S
1W
#1010000000
0!
0(
03
0;
0J
0O
0S
0W
#1015000000
1!
1(
13
1;
1B
1J
1L
1O
1S
1W
#1020000000
0!
0(
03
0;
0J
0O
0S
0W
#1025000000
1!
1(
13
1;
1C
1J
1N
1O
1S
1W
#1030000000
0!
0(
03
0;
0J
0O
0S
0W
#1035000000
1!
1(
13
1;
b1 A
0B
1D
1J
0L
b1 M
1O
1Q
1S
1W
#1040000000
0!
0(
03
0;
0J
0O
0S
0W
#1045000000
1!
1(
13
1;
0C
1E
1J
0N
1O
1R
1S
1W
#1050000000
0!
0(
03
0;
0J
0O
0S
0W
#1055000000
1!
1(
13
1;
0D
1F
1J
1O
0Q
1S
1U
1W
#1060000000
0!
0(
03
0;
0J
0O
0S
0W
#1065000000
1!
1(
13
1;
0E
1G
1J
1O
0R
1S
1V
1W
#1070000000
0!
0(
03
0;
0J
0O
0S
0W
#1075000000
1!
1(
13
1;
0F
1H
1J
1O
1S
0U
1W
1Y
#1080000000
0!
0(
03
0;
0J
0O
0S
0W
#1085000000
1!
1(
13
1;
0G
1I
1J
1O
1S
0V
1W
1Z
#1090000000
0!
0(
03
0;
0J
0O
0S
0W
#1095000000
1!
1(
13
1;
1B
0H
1J
1L
1O
1S
1W
0Y
#1100000000
0!
0(
03
0;
0J
0O
0S
0W
#1105000000
1!
1(
13
1;
1C
0I
1J
1N
1O
1S
1W
0Z
#1110000000
0!
0(
03
0;
0J
0O
0S
0W
#1115000000
1!
1(
13
1;
b10 A
0B
1D
1J
0L
b10 M
1O
1Q
1S
1W
#1120000000
0!
0(
03
0;
0J
0O
0S
0W
#1125000000
1!
1(
13
1;
0C
1E
1J
0N
1O
1R
1S
1W
#1130000000
0!
0(
03
0;
0J
0O
0S
0W
#1135000000
1!
1(
13
1;
0D
1F
1J
1O
0Q
1S
1U
1W
#1140000000
0!
0(
03
0;
0J
0O
0S
0W
#1145000000
1!
1(
13
1;
0E
1G
1J
1O
0R
1S
1V
1W
#1150000000
0!
0(
03
0;
0J
0O
0S
0W
#1155000000
1!
1(
13
1;
0F
1H
1J
1O
1S
0U
1W
1Y
#1160000000
0!
0(
03
0;
0J
0O
0S
0W
#1165000000
1!
1(
13
1;
0G
1I
1J
1O
1S
0V
1W
1Z
#1170000000
0!
0(
03
0;
0J
0O
0S
0W
#1175000000
1!
1(
13
1;
1B
0H
1J
1L
1O
1S
1W
0Y
#1180000000
0!
0(
03
0;
0J
0O
0S
0W
#1185000000
1!
1(
13
1;
1C
0I
1J
1N
1O
1S
1W
0Z
#1190000000
0!
0(
03
0;
0J
0O
0S
0W
#1195000000
1!
1(
13
1;
b11 A
0B
1D
1J
0L
b11 M
1O
1Q
1S
1W
#1200000000
0!
0(
03
0;
0J
0O
0S
0W
#1205000000
1!
1(
13
1;
0C
1E
1J
0N
1O
1R
1S
1W
#1210000000
0!
0(
03
0;
0J
0O
0S
0W
#1215000000
1!
1(
13
1;
0D
1F
1J
1O
0Q
1S
1U
1W
#1220000000
0!
0(
03
0;
0J
0O
0S
0W
#1225000000
1!
1(
13
1;
0E
1G
1J
1O
0R
1S
1V
1W
#1230000000
0!
0(
03
0;
0J
0O
0S
0W
#1235000000
1!
1(
13
1;
0F
1H
1J
1O
1S
0U
1W
1Y
#1240000000
0!
0(
03
0;
0J
0O
0S
0W
#1245000000
1!
1(
13
1;
0G
1I
1J
1O
1S
0V
1W
1Z
#1250000000
0!
0(
03
0;
0J
0O
0S
0W
#1255000000
1!
1(
13
1;
1B
0H
1J
1L
1O
1S
1W
0Y
#1260000000
0!
0(
03
0;
0J
0O
0S
0W
#1265000000
1!
1(
13
1;
1C
0I
1J
1N
1O
1S
1W
0Z
#1270000000
0!
0(
03
0;
0J
0O
0S
0W
#1275000000
1!
1(
13
1;
b100 A
0B
1D
1J
0L
b100 M
1O
1Q
1S
1W
#1280000000
0!
0(
03
0;
0J
0O
0S
0W
#1285000000
1!
1(
13
1;
0C
1E
1J
0N
1O
1R
1S
1W
#1290000000
0!
0(
03
0;
0J
0O
0S
0W
#1295000000
1!
1(
13
1;
0D
1F
1J
1O
0Q
1S
1U
1W
#1300000000
0!
0(
03
0;
0J
0O
0S
0W
#1305000000
1!
1(
13
1;
0E
1G
1J
1O
0R
1S
1V
1W
#1310000000
0!
0(
03
0;
0J
0O
0S
0W
#1315000000
1!
1(
13
1;
0F
1H
1J
1O
1S
0U
1W
1Y
#1320000000
0!
0(
03
0;
0J
0O
0S
0W
#1325000000
1!
1(
13
1;
0G
1I
1J
1O
1S
0V
1W
1Z
#1330000000
0!
0(
03
0;
0J
0O
0S
0W
#1335000000
1!
1(
13
1;
1B
0H
1J
1L
1O
1S
1W
0Y
#1340000000
0!
0(
03
0;
0J
0O
0S
0W
#1345000000
1!
1(
13
1;
1C
0I
1J
1N
1O
1S
1W
0Z
#1350000000
0!
0(
03
0;
0J
0O
0S
0W
#1355000000
1!
1(
13
1;
b101 A
0B
1D
1J
0L
b101 M
1O
1Q
1S
1W
#1360000000
0!
0(
03
0;
0J
0O
0S
0W
#1365000000
1!
1(
13
1;
0C
1E
1J
0N
1O
1R
1S
1W
#1370000000
0!
0(
03
0;
0J
0O
0S
0W
#1375000000
1!
1(
13
1;
0D
1F
1J
1O
0Q
1S
1U
1W
#1380000000
0!
0(
03
0;
0J
0O
0S
0W
#1385000000
1!
1(
13
1;
0E
1G
1J
1O
0R
1S
1V
1W
#1390000000
0!
0(
03
0;
0J
0O
0S
0W
#1395000000
1!
1(
13
1;
0F
1H
1J
1O
1S
0U
1W
1Y
#1400000000
0!
0(
03
0;
0J
0O
0S
0W
#1405000000
1!
1(
13
1;
0G
1I
1J
1O
1S
0V
1W
1Z
#1410000000
0!
0(
03
0;
0J
0O
0S
0W
#1415000000
1!
1(
13
1;
1B
0H
1J
1L
1O
1S
1W
0Y
#1420000000
0!
0(
03
0;
0J
0O
0S
0W
#1425000000
1!
1(
13
1;
1C
0I
1J
1N
1O
1S
1W
0Z
#1430000000
0!
0(
03
0;
0J
0O
0S
0W
#1435000000
1!
1(
13
1;
b110 A
0B
1D
1J
0L
b110 M
1O
1Q
1S
1W
#1440000000
0!
0(
03
0;
0J
0O
0S
0W
#1445000000
1!
1(
13
1;
0C
1E
1J
0N
1O
1R
1S
1W
#1450000000
0!
0(
03
0;
0J
0O
0S
0W
#1455000000
1!
1(
13
1;
0D
1F
1J
1O
0Q
1S
1U
1W
#1460000000
0!
0(
03
0;
0J
0O
0S
0W
#1465000000
1!
1(
13
1;
0E
1G
1J
1O
0R
1S
1V
1W
#1470000000
0!
0(
03
0;
0J
0O
0S
0W
#1475000000
1!
1(
13
1;
0F
1H
1J
1O
1S
0U
1W
1Y
#1480000000
0!
0(
03
0;
0J
0O
0S
0W
#1485000000
1!
1(
13
1;
0G
1I
1J
1O
1S
0V
1W
1Z
#1490000000
0!
0(
03
0;
0J
0O
0S
0W
#1495000000
1!
1(
13
1;
1B
0H
1J
1L
1O
1S
1W
0Y
#1500000000
0!
0(
03
0;
0J
0O
0S
0W
#1505000000
1!
1(
13
1;
1C
0I
1J
1N
1O
1S
1W
0Z
#1510000000
0!
0(
03
0;
0J
0O
0S
0W
#1515000000
1!
1(
13
1;
b111 A
0B
1D
1J
0L
b111 M
1O
1Q
1S
1W
#1520000000
0!
0(
03
0;
0J
0O
0S
0W
#1525000000
1!
1(
13
1;
0C
1E
1J
0N
1O
1R
1S
1W
#1530000000
0!
0(
03
0;
0J
0O
0S
0W
#1535000000
1!
1(
13
1;
0D
1F
1J
1O
0Q
1S
1U
1W
#1540000000
0!
0(
03
0;
0J
0O
0S
0W
#1545000000
1!
1(
13
1;
0E
1G
1J
1O
0R
1S
1V
1W
#1550000000
0!
0(
03
0;
0J
0O
0S
0W
#1555000000
1!
1(
13
1;
0F
1H
1J
1O
1S
0U
1W
1Y
#1560000000
0!
0(
03
0;
0J
0O
0S
0W
#1565000000
1!
1(
13
1;
0G
1I
1J
1O
1S
0V
1W
1Z
#1570000000
0!
0(
03
0;
0J
0O
0S
0W
#1575000000
1!
1(
13
1;
1B
0H
1J
1L
1O
1S
1W
0Y
#1580000000
0!
0(
03
0;
0J
0O
0S
0W
#1585000000
1!
1(
13
1;
1C
0I
1J
1N
1O
1S
1W
0Z
#1590000000
0!
0(
03
0;
0J
0O
0S
0W
#1595000000
1!
1(
13
1;
b1000 A
0B
1D
1J
0L
b1000 M
1O
1Q
1S
1W
#1600000000
0!
0(
03
0;
0J
0O
0S
0W
#1605000000
1!
1(
13
1;
0C
1E
1J
0N
1O
1R
1S
1W
#1610000000
0!
0(
03
0;
0J
0O
0S
0W
#1615000000
1!
1(
13
1;
0D
1F
1J
1O
0Q
1S
1U
1W
#1620000000
0!
0(
03
0;
0J
0O
0S
0W
#1625000000
1!
1(
13
1;
0E
1G
1J
1O
0R
1S
1V
1W
#1630000000
0!
0(
03
0;
0J
0O
0S
0W
#1635000000
1!
1(
13
1;
0F
1H
1J
1O
1S
0U
1W
1Y
#1640000000
0!
0(
03
0;
0J
0O
0S
0W
#1645000000
1!
1(
13
1;
0G
1I
1J
1O
1S
0V
1W
1Z
#1650000000
0!
0(
03
0;
0J
0O
0S
0W
#1655000000
1!
1(
13
1;
1B
0H
1J
1L
1O
1S
1W
0Y
#1660000000
0!
0(
03
0;
0J
0O
0S
0W
#1665000000
1!
1(
13
1;
1C
0I
1J
1N
1O
1S
1W
0Z
#1670000000
0!
0(
03
0;
0J
0O
0S
0W
#1675000000
1!
1(
13
1;
b1001 A
0B
1D
1J
0L
b1001 M
1O
1Q
1S
1W
#1680000000
0!
0(
03
0;
0J
0O
0S
0W
#1685000000
1!
1(
13
1;
0C
1E
1J
0N
1O
1R
1S
1W
#1690000000
0!
0(
03
0;
0J
0O
0S
0W
